<?xml version="1.0" encoding="UTF-8"?>
<svg xmlns="http://www.w3.org/2000/svg" xmlns:xlink="http://www.w3.org/1999/xlink" width="149pt" height="149pt" viewBox="0 0 149 149" version="1.1">
<g id="surface1">
<path style=" stroke:none;fill-rule:nonzero;fill:rgb(0%,0%,0%);fill-opacity:1;" d="M 67.757812 11.980469 C 51.328125 13.640625 36.144531 21.734375 25.472656 34.5 C 19.527344 41.617188 14.855469 50.933594 12.628906 60.117188 C 11.351562 65.386719 11 68.457031 11 74.976562 C 11 81.308594 11.269531 83.941406 12.519531 89.375 C 17.003906 108.933594 31.472656 125.882812 50.242188 133.519531 C 69.28125 141.234375 91.222656 139.167969 108.359375 128.035156 C 121.613281 119.417969 131.3125 106.027344 135.191406 91.003906 C 140.273438 71.335938 135.898438 50.933594 123.1875 35.152344 C 113.328125 22.902344 98.960938 14.699219 83.238281 12.335938 C 79.925781 11.84375 71.097656 11.628906 67.757812 11.980469 Z M 79.300781 15.785156 C 90.734375 16.816406 102.386719 21.515625 111.238281 28.632812 C 113.601562 30.53125 118.21875 35.152344 120.117188 37.488281 C 125.359375 43.980469 129.570312 52.375 131.578125 60.28125 C 133.265625 66.992188 133.777344 75.140625 132.9375 81.90625 C 131.496094 93.53125 126.585938 104.726562 119.199219 113.28125 C 116.425781 116.484375 115.855469 117.027344 110.640625 121.566406 C 108.765625 123.195312 103.90625 126.210938 100.132812 128.085938 C 94.917969 130.667969 88.808594 132.597656 82.695312 133.574219 C 78.1875 134.308594 68.925781 134.226562 64.335938 133.4375 C 39.949219 129.253906 20.855469 110.808594 15.914062 86.660156 C 12.84375 71.582031 15.914062 55.445312 24.363281 42.515625 C 36.390625 24.097656 57.546875 13.800781 79.300781 15.785156 Z M 79.300781 15.785156 "/>
<path style=" stroke:none;fill-rule:nonzero;fill:rgb(0%,0%,0%);fill-opacity:1;" d="M 59.992188 40.316406 C 56.488281 41.5625 54.152344 44.632812 52.578125 50.066406 C 51.65625 53.296875 50.867188 61.015625 51.410156 61.585938 C 51.519531 61.667969 51.601562 61.503906 51.601562 61.179688 C 51.601562 59.902344 53.609375 54.003906 54.992188 51.207031 C 57.273438 46.589844 58.714844 45.367188 61.808594 45.367188 C 64.933594 45.367188 70.257812 47.023438 76.855469 50.039062 C 79.738281 51.34375 88.289062 55.6875 89.890625 56.640625 C 90.707031 57.128906 93.152344 58.542969 95.324219 59.792969 C 97.496094 61.015625 99.777344 62.402344 100.402344 62.863281 C 101.816406 63.839844 102.222656 63.648438 100.976562 62.617188 C 100.484375 62.210938 99.097656 60.988281 97.90625 59.902344 C 92.527344 55.007812 88.96875 52.375 80.332031 46.859375 C 77.484375 45.066406 69.960938 41.375 67.625 40.640625 C 65.125 39.851562 61.703125 39.691406 59.992188 40.316406 Z M 59.992188 40.316406 "/>
<path style=" stroke:none;fill-rule:nonzero;fill:rgb(0%,0%,0%);fill-opacity:1;" d="M 74.523438 58.269531 C 74.65625 58.625 74.46875 58.679688 73.351562 58.515625 L 72.050781 58.351562 L 71.425781 59.792969 C 70.203125 62.644531 69.660156 65.660156 70.039062 67.371094 C 70.175781 67.996094 70.339844 68.566406 70.421875 68.621094 C 70.476562 68.675781 71.832031 68.863281 73.433594 69 C 75.039062 69.164062 76.695312 69.328125 77.15625 69.382812 C 77.808594 69.460938 78.023438 69.355469 78.214844 68.890625 C 78.429688 68.347656 78.457031 68.347656 78.484375 68.863281 L 78.511719 69.40625 L 79.003906 68.320312 L 79.03125 68.863281 C 79.058594 69.328125 79.113281 69.328125 79.328125 68.730469 C 79.546875 68.1875 79.65625 68.132812 79.871094 68.457031 C 80.117188 68.785156 80.144531 68.730469 80.035156 68.238281 C 79.871094 67.535156 80.277344 67.398438 80.46875 68.105469 C 80.550781 68.511719 80.632812 68.457031 80.847656 67.886719 C 81.011719 67.507812 81.609375 66.71875 82.152344 66.148438 C 82.722656 65.578125 82.964844 65.199219 82.722656 65.28125 C 82.480469 65.386719 82.289062 65.308594 82.289062 65.117188 C 82.316406 64.816406 83.292969 64.003906 85.519531 62.507812 L 86.5 61.855469 L 85.683594 61.503906 C 84.542969 61.015625 83.621094 61.042969 83.210938 61.585938 C 83.019531 61.855469 82.832031 61.9375 82.832031 61.777344 C 82.832031 61.613281 83.128906 61.207031 83.511719 60.851562 C 83.890625 60.5 84.191406 60.066406 84.191406 59.902344 C 84.191406 59.738281 83.320312 59.441406 82.234375 59.277344 C 81.148438 59.085938 78.976562 58.707031 77.402344 58.40625 C 75.824219 58.109375 74.496094 57.863281 74.441406 57.863281 C 74.386719 57.863281 74.441406 58.054688 74.523438 58.269531 Z M 76.175781 58.949219 C 76.695312 59.167969 76.695312 59.195312 76.121094 59.195312 C 75.796875 59.222656 75.445312 59.085938 75.363281 58.949219 C 75.175781 58.625 75.417969 58.625 76.175781 58.949219 Z M 79.4375 59.765625 C 79.792969 59.902344 79.820312 60.011719 79.574219 60.011719 C 79.355469 60.011719 78.921875 59.902344 78.621094 59.765625 C 78.269531 59.628906 78.242188 59.519531 78.484375 59.519531 C 78.703125 59.519531 79.136719 59.628906 79.4375 59.765625 Z M 80.847656 60.199219 C 80.765625 60.28125 80.523438 60.308594 80.332031 60.226562 C 80.117188 60.144531 80.199219 60.066406 80.496094 60.066406 C 80.792969 60.039062 80.957031 60.117188 80.847656 60.199219 Z M 76.015625 60.878906 C 77.78125 61.207031 78.132812 61.558594 76.9375 61.75 C 76.203125 61.855469 76.203125 61.855469 76.804688 62.074219 C 77.511719 62.320312 77.589844 62.753906 76.9375 62.753906 C 76.667969 62.753906 76.203125 62.945312 75.933594 63.160156 C 75.632812 63.378906 75.09375 63.570312 74.738281 63.570312 L 74.113281 63.570312 L 74.929688 65.035156 C 75.90625 66.71875 75.933594 66.828125 75.308594 66.636719 C 74.792969 66.5 73.054688 63.867188 73.054688 63.242188 C 73.054688 62.972656 73.324219 62.890625 73.976562 62.972656 C 74.46875 63.023438 74.957031 62.945312 75.066406 62.808594 C 75.257812 62.507812 73.734375 61.882812 73.488281 62.128906 C 73.40625 62.238281 73.324219 62.101562 73.324219 61.832031 C 73.324219 61.449219 73.515625 61.394531 74.359375 61.53125 C 75.335938 61.667969 75.066406 61.421875 73.789062 61.015625 C 73.515625 60.933594 73.378906 60.714844 73.460938 60.554688 C 73.570312 60.390625 73.816406 60.335938 74.003906 60.417969 C 74.195312 60.472656 75.09375 60.6875 76.015625 60.878906 Z M 81.203125 61.125 C 81.039062 61.449219 80.820312 61.667969 80.738281 61.585938 C 80.683594 61.503906 80.765625 61.207031 80.957031 60.878906 C 81.148438 60.582031 81.367188 60.390625 81.417969 60.445312 C 81.472656 60.5 81.367188 60.796875 81.203125 61.125 Z M 81.746094 65.851562 C 81.746094 65.929688 81.636719 66.066406 81.472656 66.148438 C 81.339844 66.230469 81.203125 66.175781 81.203125 66.039062 C 81.203125 65.878906 81.339844 65.742188 81.472656 65.742188 C 81.636719 65.742188 81.746094 65.796875 81.746094 65.851562 Z M 81.746094 65.851562 "/>
<path style=" stroke:none;fill-rule:nonzero;fill:rgb(0%,0%,0%);fill-opacity:1;" d="M 30.226562 61.695312 C 27.046875 62.210938 23.898438 64.4375 22.566406 67.046875 C 20.640625 70.847656 20.257812 76.851562 21.589844 83.265625 C 21.972656 85.191406 22.324219 86.820312 22.351562 86.847656 C 22.375 86.875 22.351562 84.976562 22.296875 82.667969 C 22.1875 77.855469 22.59375 75.058594 23.820312 72.261719 C 25.039062 69.460938 26.535156 68.402344 30.878906 67.289062 C 33.078125 66.746094 33.835938 66.691406 40.734375 66.71875 C 48.121094 66.746094 52.117188 67.046875 59.339844 68.078125 C 62.488281 68.539062 69.28125 69.734375 70.203125 70.003906 C 70.503906 70.085938 70.667969 70.085938 70.585938 69.976562 C 70.257812 69.625 53.367188 64.058594 51.058594 63.542969 C 43.019531 61.722656 34.597656 60.960938 30.226562 61.695312 Z M 30.226562 61.695312 "/>
<path style=" stroke:none;fill-rule:nonzero;fill:rgb(0%,0%,0%);fill-opacity:1;" d="M 102.65625 64.546875 C 94.617188 65.769531 91.578125 66.554688 80.25 70.332031 C 73.570312 72.558594 73.027344 72.9375 77.617188 72.015625 C 81.417969 71.253906 86.390625 70.46875 91.523438 69.789062 C 95.242188 69.273438 97.414062 69.164062 104.148438 69.164062 C 113.222656 69.136719 114.445312 69.300781 117.863281 70.984375 C 119.277344 71.691406 119.820312 72.152344 120.636719 73.347656 C 122.480469 76.089844 123.542969 80.65625 123.597656 86.117188 L 123.625 88.425781 L 124.058594 86.660156 C 124.652344 84.050781 124.652344 75.953125 124.03125 73.753906 C 122.699219 69.082031 120.039062 66.066406 116.074219 64.761719 C 114.199219 64.140625 106.132812 64.003906 102.65625 64.546875 Z M 102.65625 64.546875 "/>
<path style=" stroke:none;fill-rule:nonzero;fill:rgb(0%,0%,0%);fill-opacity:1;" d="M 44.8125 74.433594 C 41.523438 76.171875 40.953125 79.921875 43.640625 82.285156 C 45.027344 83.507812 46.332031 83.835938 48.804688 83.589844 C 50.242188 83.425781 52.414062 82.367188 52.414062 81.796875 C 52.414062 81.445312 51.546875 81.171875 51.355469 81.445312 C 50.949219 82.042969 49.238281 82.640625 47.824219 82.667969 C 45.054688 82.695312 43.179688 81.089844 43.179688 78.722656 C 43.179688 77.503906 43.289062 77.257812 44.214844 76.335938 C 45.21875 75.328125 46.710938 74.703125 48.070312 74.703125 C 48.855469 74.703125 50.894531 75.601562 51.164062 76.035156 C 51.410156 76.386719 51.601562 76.414062 52.117188 76.089844 C 52.441406 75.871094 52.46875 75.765625 52.171875 75.410156 C 50.976562 73.972656 46.738281 73.402344 44.8125 74.433594 Z M 44.8125 74.433594 "/>
<path style=" stroke:none;fill-rule:nonzero;fill:rgb(0%,0%,0%);fill-opacity:1;" d="M 74.957031 75.085938 C 74.957031 76.144531 74.875 76.308594 74.359375 76.386719 C 73.515625 76.496094 73.351562 77.367188 74.195312 77.3125 C 74.792969 77.285156 74.820312 77.367188 74.957031 80.382812 C 75.066406 83.074219 75.148438 83.480469 75.578125 83.5625 C 75.988281 83.617188 76.042969 83.320312 76.042969 80.519531 C 76.042969 77.3125 76.042969 77.285156 77.210938 77.394531 C 77.511719 77.449219 77.671875 77.257812 77.671875 76.90625 C 77.671875 76.441406 77.511719 76.335938 76.855469 76.335938 C 76.070312 76.335938 76.042969 76.28125 76.042969 75.113281 C 76.042969 74.078125 75.960938 73.890625 75.5 73.890625 C 75.039062 73.890625 74.957031 74.078125 74.957031 75.085938 Z M 74.957031 75.085938 "/>
<path style=" stroke:none;fill-rule:nonzero;fill:rgb(0%,0%,0%);fill-opacity:1;" d="M 55.539062 76.851562 C 54.046875 77.773438 53.636719 78.425781 53.636719 80.03125 C 53.636719 81.363281 53.71875 81.578125 54.667969 82.503906 C 55.648438 83.507812 55.753906 83.535156 57.546875 83.535156 C 58.960938 83.535156 59.554688 83.425781 59.9375 83.046875 C 60.617188 82.449219 60.835938 82.449219 60.835938 83.15625 C 60.835938 83.535156 60.96875 83.671875 61.324219 83.617188 C 61.730469 83.535156 61.78125 83.128906 61.863281 80.164062 C 61.917969 77.636719 61.835938 76.742188 61.597656 76.550781 C 61.023438 76.199219 60.835938 76.308594 60.835938 77.011719 L 60.835938 77.664062 L 59.855469 77.011719 C 58.636719 76.171875 56.734375 76.089844 55.539062 76.851562 Z M 59.015625 77.527344 C 62.515625 78.996094 60.371094 83.589844 56.679688 82.558594 C 55.566406 82.257812 54.589844 81.035156 54.589844 79.921875 C 54.589844 79.023438 55.375 77.9375 56.355469 77.527344 C 57.410156 77.066406 57.929688 77.066406 59.015625 77.527344 Z M 59.015625 77.527344 "/>
<path style=" stroke:none;fill-rule:nonzero;fill:rgb(0%,0%,0%);fill-opacity:1;" d="M 63.742188 76.523438 C 63.632812 76.605469 63.550781 78.179688 63.550781 80.03125 C 63.550781 82.800781 63.632812 83.371094 63.984375 83.507812 C 64.769531 83.808594 64.90625 83.398438 64.90625 80.925781 C 64.90625 78.671875 64.960938 78.425781 65.613281 77.800781 C 66.023438 77.367188 66.480469 77.148438 66.808594 77.230469 C 67.242188 77.339844 67.625 76.957031 67.625 76.441406 C 67.625 76.144531 66.1875 76.386719 65.585938 76.769531 C 64.960938 77.175781 64.90625 77.175781 64.746094 76.769531 C 64.582031 76.335938 64.0625 76.199219 63.742188 76.523438 Z M 63.742188 76.523438 "/>
<path style=" stroke:none;fill-rule:nonzero;fill:rgb(0%,0%,0%);fill-opacity:1;" d="M 69.117188 76.660156 C 68.386719 77.066406 68.167969 77.421875 68.167969 78.261719 C 68.167969 79.023438 68.871094 79.730469 70.421875 80.519531 C 71.261719 80.953125 71.425781 81.171875 71.371094 81.742188 C 71.289062 82.339844 71.125 82.449219 70.257812 82.53125 C 69.6875 82.585938 69.035156 82.476562 68.816406 82.285156 C 68.492188 82.015625 68.359375 82.015625 68.085938 82.285156 C 67.839844 82.558594 67.894531 82.746094 68.441406 83.183594 C 69.332031 83.914062 71.316406 83.726562 72.023438 82.855469 C 73.082031 81.550781 72.429688 80.191406 70.367188 79.320312 C 69.441406 78.941406 69.0625 78.125 69.523438 77.554688 C 69.960938 77.039062 70.613281 77.039062 71.34375 77.554688 C 71.832031 77.910156 71.941406 77.910156 72.242188 77.554688 C 72.484375 77.257812 72.402344 77.09375 71.722656 76.769531 C 70.773438 76.253906 69.878906 76.226562 69.117188 76.660156 Z M 69.117188 76.660156 "/>
<path style=" stroke:none;fill-rule:nonzero;fill:rgb(0%,0%,0%);fill-opacity:1;" d="M 80.199219 76.742188 C 78.242188 77.609375 77.484375 80.246094 78.703125 81.960938 C 80.386719 84.324219 84.460938 84.1875 85.929688 81.714844 C 86.664062 80.492188 86.417969 78.535156 85.410156 77.527344 C 84.273438 76.386719 81.882812 76.035156 80.199219 76.742188 Z M 83.15625 77.421875 C 85.21875 78.019531 85.929688 80.328125 84.488281 81.796875 C 82.777344 83.507812 79.300781 82.449219 79.300781 80.21875 C 79.300781 78.996094 79.683594 78.316406 80.738281 77.691406 C 81.746094 77.066406 81.828125 77.066406 83.15625 77.421875 Z M 83.15625 77.421875 "/>
<path style=" stroke:none;fill-rule:nonzero;fill:rgb(0%,0%,0%);fill-opacity:1;" d="M 87.910156 76.523438 C 87.609375 76.796875 87.691406 83.34375 87.964844 83.507812 C 88.101562 83.617188 88.398438 83.589844 88.644531 83.507812 C 88.996094 83.371094 89.078125 82.882812 89.078125 80.980469 C 89.078125 78.289062 89.40625 77.554688 90.761719 77.203125 C 91.25 77.09375 91.660156 76.851562 91.742188 76.660156 C 91.875 76.199219 90.382812 76.253906 89.730469 76.742188 C 89.050781 77.257812 88.808594 77.257812 88.808594 76.742188 C 88.808594 76.335938 88.234375 76.171875 87.910156 76.523438 Z M 87.910156 76.523438 "/>
<path style=" stroke:none;fill-rule:nonzero;fill:rgb(0%,0%,0%);fill-opacity:1;" d="M 93.480469 77.066406 C 92.28125 77.855469 91.796875 78.777344 91.796875 80.328125 C 91.796875 81.007812 92.035156 81.523438 92.824219 82.367188 C 93.804688 83.398438 93.96875 83.480469 95.761719 83.589844 C 97.605469 83.726562 97.714844 83.699219 98.667969 82.855469 C 100.320312 81.417969 99.667969 80.492188 97.988281 81.90625 C 97.117188 82.640625 95.214844 82.828125 94.210938 82.3125 C 93.777344 82.070312 92.878906 80.738281 92.878906 80.273438 C 92.878906 80.191406 94.480469 80.136719 96.414062 80.136719 L 99.941406 80.136719 L 99.941406 79.429688 C 99.941406 76.878906 96.003906 75.4375 93.480469 77.066406 Z M 97.035156 77.449219 C 97.933594 77.910156 98.855469 78.832031 98.695312 79.078125 C 98.53125 79.347656 93.152344 79.429688 93.152344 79.160156 C 93.152344 78.671875 93.859375 77.855469 94.589844 77.554688 C 95.652344 77.09375 96.277344 77.066406 97.035156 77.449219 Z M 97.035156 77.449219 "/>
<path style=" stroke:none;fill-rule:nonzero;fill:rgb(0%,0%,0%);fill-opacity:1;" d="M 102.03125 76.632812 C 101.324219 77.039062 101.003906 78.097656 101.296875 78.914062 C 101.433594 79.296875 102.085938 79.839844 102.902344 80.246094 C 104.503906 81.0625 104.667969 81.308594 104.285156 82.042969 C 103.960938 82.667969 102.683594 82.773438 101.84375 82.230469 C 101.378906 81.960938 101.242188 81.988281 101.03125 82.3125 C 100.648438 82.9375 101.324219 83.425781 102.738281 83.589844 C 104.148438 83.753906 105.019531 83.371094 105.402344 82.367188 C 105.859375 81.171875 105.484375 80.464844 103.851562 79.566406 C 102.167969 78.589844 101.84375 78.125 102.46875 77.476562 C 102.847656 77.121094 103.039062 77.09375 104.015625 77.421875 C 105.320312 77.855469 105.753906 77.582031 104.855469 76.851562 C 104.175781 76.28125 102.820312 76.171875 102.03125 76.632812 Z M 102.03125 76.632812 "/>
<path style=" stroke:none;fill-rule:nonzero;fill:rgb(0%,0%,0%);fill-opacity:1;" d="M 28.109375 78.425781 C 23.492188 80.84375 23.273438 87.691406 27.699219 90.191406 C 29.464844 91.167969 31.992188 91.140625 33.597656 90.109375 C 37.777344 87.445312 37.503906 80.738281 33.105469 78.507812 C 31.828125 77.828125 29.273438 77.800781 28.109375 78.425781 Z M 33.1875 80.21875 C 35.035156 81.632812 35.6875 83.644531 35.0625 85.898438 C 33.890625 90 28.816406 90.789062 26.589844 87.230469 C 25.5 85.519531 25.472656 83.15625 26.507812 81.605469 C 27.699219 79.839844 28.570312 79.375 30.609375 79.347656 C 31.773438 79.320312 32.183594 79.457031 33.1875 80.21875 Z M 33.1875 80.21875 "/>
<path style=" stroke:none;fill-rule:nonzero;fill:rgb(0%,0%,0%);fill-opacity:1;" d="M 28.980469 80.710938 C 28.542969 80.980469 28.542969 81.035156 29.0625 81.796875 C 29.847656 82.882812 30.144531 82.800781 30.144531 81.496094 C 30.144531 80.355469 29.875 80.191406 28.980469 80.710938 Z M 28.980469 80.710938 "/>
<path style=" stroke:none;fill-rule:nonzero;fill:rgb(0%,0%,0%);fill-opacity:1;" d="M 31.234375 81.496094 C 31.234375 82.746094 31.371094 82.828125 32.074219 81.988281 C 32.699219 81.28125 32.726562 80.789062 32.15625 80.574219 C 31.371094 80.273438 31.234375 80.410156 31.234375 81.496094 Z M 31.234375 81.496094 "/>
<path style=" stroke:none;fill-rule:nonzero;fill:rgb(0%,0%,0%);fill-opacity:1;" d="M 27.457031 82.53125 C 26.914062 83.5625 27.074219 83.941406 28.109375 83.941406 C 29.21875 83.941406 29.246094 83.808594 28.40625 82.746094 C 27.78125 81.988281 27.753906 81.988281 27.457031 82.53125 Z M 27.457031 82.53125 "/>
<path style=" stroke:none;fill-rule:nonzero;fill:rgb(0%,0%,0%);fill-opacity:1;" d="M 32.917969 82.722656 C 32.101562 83.753906 32.15625 83.941406 33.269531 83.941406 C 34.328125 83.941406 34.542969 83.398438 33.863281 82.476562 C 33.515625 81.988281 33.460938 82.015625 32.917969 82.722656 Z M 32.917969 82.722656 "/>
<path style=" stroke:none;fill-rule:nonzero;fill:rgb(0%,0%,0%);fill-opacity:1;" d="M 30.199219 84.539062 C 30.253906 84.894531 30.472656 85.164062 30.6875 85.164062 C 30.90625 85.164062 31.125 84.894531 31.179688 84.539062 C 31.261719 84.078125 31.125 83.941406 30.6875 83.941406 C 30.253906 83.941406 30.117188 84.078125 30.199219 84.539062 Z M 30.199219 84.539062 "/>
<path style=" stroke:none;fill-rule:nonzero;fill:rgb(0%,0%,0%);fill-opacity:1;" d="M 27.101562 85.191406 C 26.914062 85.355469 27.484375 86.929688 27.699219 86.929688 C 28.054688 86.929688 29.0625 85.546875 28.925781 85.300781 C 28.734375 85.003906 27.347656 84.921875 27.101562 85.191406 Z M 27.101562 85.191406 "/>
<path style=" stroke:none;fill-rule:nonzero;fill:rgb(0%,0%,0%);fill-opacity:1;" d="M 32.316406 85.273438 C 32.316406 85.652344 33.597656 87.09375 33.78125 86.902344 C 33.863281 86.820312 34.027344 86.359375 34.109375 85.898438 C 34.273438 85.058594 34.273438 85.03125 33.296875 85.03125 C 32.753906 85.03125 32.316406 85.136719 32.316406 85.273438 Z M 32.316406 85.273438 "/>
<path style=" stroke:none;fill-rule:nonzero;fill:rgb(0%,0%,0%);fill-opacity:1;" d="M 29.21875 87.148438 L 28.460938 87.964844 L 29.167969 88.425781 C 30.0625 89.023438 30.199219 88.886719 30.089844 87.472656 L 30.007812 86.332031 Z M 29.21875 87.148438 "/>
<path style=" stroke:none;fill-rule:nonzero;fill:rgb(0%,0%,0%);fill-opacity:1;" d="M 31.234375 87.554688 C 31.234375 88.941406 31.261719 88.96875 32.074219 88.558594 C 32.78125 88.179688 32.726562 87.691406 31.910156 86.929688 L 31.234375 86.304688 Z M 31.234375 87.554688 "/>
<path style=" stroke:none;fill-rule:nonzero;fill:rgb(0%,0%,0%);fill-opacity:1;" d="M 113.574219 78.644531 C 111.457031 79.839844 110.261719 81.90625 110.261719 84.351562 C 110.261719 91.140625 118.597656 93.449219 121.640625 87.472656 C 123.242188 84.351562 121.886719 80.003906 118.871094 78.535156 C 117.214844 77.71875 115.097656 77.773438 113.574219 78.644531 Z M 118.515625 79.839844 C 119.820312 80.710938 120.527344 81.742188 120.878906 83.238281 C 121.289062 85.136719 120.851562 86.714844 119.523438 88.042969 C 117.539062 90.027344 114.851562 90 112.921875 87.988281 C 110.695312 85.628906 110.992188 81.988281 113.601562 80.109375 C 114.5 79.457031 114.960938 79.320312 116.210938 79.320312 C 117.242188 79.320312 117.972656 79.484375 118.515625 79.839844 Z M 118.515625 79.839844 "/>
<path style=" stroke:none;fill-rule:nonzero;fill:rgb(0%,0%,0%);fill-opacity:1;" d="M 114.796875 80.710938 C 114.363281 80.980469 114.363281 81.035156 114.878906 81.796875 C 115.664062 82.882812 115.964844 82.800781 115.964844 81.496094 C 115.964844 80.355469 115.691406 80.191406 114.796875 80.710938 Z M 114.796875 80.710938 "/>
<path style=" stroke:none;fill-rule:nonzero;fill:rgb(0%,0%,0%);fill-opacity:1;" d="M 117.050781 81.550781 L 117.050781 82.667969 L 117.730469 82.042969 C 118.515625 81.308594 118.597656 80.816406 117.972656 80.574219 C 117.1875 80.273438 117.050781 80.410156 117.050781 81.550781 Z M 117.050781 81.550781 "/>
<path style=" stroke:none;fill-rule:nonzero;fill:rgb(0%,0%,0%);fill-opacity:1;" d="M 113.03125 82.746094 C 112.625 83.644531 112.8125 83.941406 113.792969 83.941406 C 114.878906 83.941406 114.988281 83.589844 114.089844 82.746094 L 113.328125 82.042969 Z M 113.03125 82.746094 "/>
<path style=" stroke:none;fill-rule:nonzero;fill:rgb(0%,0%,0%);fill-opacity:1;" d="M 118.734375 82.585938 C 117.835938 83.425781 117.945312 83.996094 119.035156 83.890625 C 119.765625 83.808594 119.902344 83.726562 119.820312 83.128906 C 119.714844 82.125 119.386719 81.988281 118.734375 82.585938 Z M 118.734375 82.585938 "/>
<path style=" stroke:none;fill-rule:nonzero;fill:rgb(0%,0%,0%);fill-opacity:1;" d="M 115.882812 84.324219 C 115.691406 84.8125 116.183594 85.300781 116.671875 85.109375 C 117.242188 84.894531 117.132812 83.941406 116.535156 83.941406 C 116.261719 83.941406 115.964844 84.105469 115.882812 84.324219 Z M 115.882812 84.324219 "/>
<path style=" stroke:none;fill-rule:nonzero;fill:rgb(0%,0%,0%);fill-opacity:1;" d="M 112.949219 85.300781 C 112.625 85.519531 113.085938 86.929688 113.492188 86.929688 C 113.710938 86.929688 114.390625 86.035156 114.636719 85.4375 C 114.742188 85.136719 113.410156 85.03125 112.949219 85.300781 Z M 112.949219 85.300781 "/>
<path style=" stroke:none;fill-rule:nonzero;fill:rgb(0%,0%,0%);fill-opacity:1;" d="M 118.136719 85.382812 C 118.136719 85.601562 118.4375 86.035156 118.789062 86.359375 C 119.441406 86.984375 119.441406 86.984375 119.742188 86.441406 C 120.28125 85.410156 120.117188 85.03125 119.089844 85.03125 C 118.492188 85.03125 118.136719 85.164062 118.136719 85.382812 Z M 118.136719 85.382812 "/>
<path style=" stroke:none;fill-rule:nonzero;fill:rgb(0%,0%,0%);fill-opacity:1;" d="M 114.878906 87.230469 C 114.253906 88.070312 114.253906 88.097656 114.742188 88.480469 C 115.476562 88.996094 115.828125 88.777344 115.910156 87.746094 C 116.046875 86.414062 115.582031 86.199219 114.878906 87.230469 Z M 114.878906 87.230469 "/>
<path style=" stroke:none;fill-rule:nonzero;fill:rgb(0%,0%,0%);fill-opacity:1;" d="M 116.996094 86.523438 C 116.863281 86.6875 116.996094 88.585938 117.1875 88.777344 C 117.378906 88.96875 118.410156 88.261719 118.410156 87.910156 C 118.410156 87.5 117.214844 86.304688 116.996094 86.523438 Z M 116.996094 86.523438 "/>
<path style=" stroke:none;fill-rule:nonzero;fill:rgb(0%,0%,0%);fill-opacity:1;" d="M 51.820312 86.929688 C 51.953125 88.261719 52.414062 88.371094 52.414062 87.09375 C 52.414062 86.578125 52.578125 86.089844 52.765625 86.035156 C 52.929688 85.953125 52.792969 85.871094 52.414062 85.871094 C 51.765625 85.84375 51.738281 85.925781 51.820312 86.929688 Z M 51.820312 86.929688 "/>
<path style=" stroke:none;fill-rule:nonzero;fill:rgb(0%,0%,0%);fill-opacity:1;" d="M 53.230469 87.066406 C 53.230469 87.746094 53.367188 88.289062 53.5 88.289062 C 53.664062 88.289062 53.773438 88.042969 53.773438 87.746094 C 53.773438 86.984375 54.695312 87.039062 55.074219 87.800781 C 55.320312 88.34375 55.375 88.261719 55.375 87.121094 C 55.402344 86.304688 55.292969 85.871094 55.128906 85.980469 C 54.992188 86.0625 54.859375 86.332031 54.859375 86.550781 C 54.859375 86.769531 54.617188 86.929688 54.316406 86.929688 C 53.964844 86.929688 53.773438 86.742188 53.773438 86.386719 C 53.773438 86.089844 53.664062 85.84375 53.5 85.84375 C 53.367188 85.84375 53.230469 86.386719 53.230469 87.066406 Z M 53.230469 87.066406 "/>
<path style=" stroke:none;fill-rule:nonzero;fill:rgb(0%,0%,0%);fill-opacity:1;" d="M 55.945312 87.066406 C 55.945312 88.261719 55.945312 88.289062 56.84375 88.261719 C 57.464844 88.234375 57.546875 88.179688 57.113281 88.097656 C 56.355469 87.964844 56.300781 87.203125 57.03125 87.203125 C 57.328125 87.203125 57.574219 87.066406 57.574219 86.929688 C 57.574219 86.769531 57.328125 86.660156 57.03125 86.660156 C 56.300781 86.660156 56.355469 86.171875 57.113281 86.035156 C 57.546875 85.953125 57.464844 85.898438 56.84375 85.871094 C 55.945312 85.84375 55.945312 85.871094 55.945312 87.066406 Z M 55.945312 87.066406 "/>
<path style=" stroke:none;fill-rule:nonzero;fill:rgb(0%,0%,0%);fill-opacity:1;" d="M 59.207031 87.066406 C 59.207031 87.746094 59.339844 88.289062 59.476562 88.289062 C 59.636719 88.289062 59.746094 88.042969 59.746094 87.773438 C 59.746094 87.445312 59.964844 87.203125 60.371094 87.121094 L 60.96875 87.011719 L 60.371094 86.796875 C 59.636719 86.550781 59.554688 86.199219 60.234375 86.035156 C 60.507812 85.953125 60.398438 85.898438 59.964844 85.871094 C 59.234375 85.84375 59.207031 85.898438 59.207031 87.066406 Z M 59.207031 87.066406 "/>
<path style=" stroke:none;fill-rule:nonzero;fill:rgb(0%,0%,0%);fill-opacity:1;" d="M 61.105469 87.066406 C 61.105469 87.828125 61.214844 88.261719 61.378906 88.152344 C 61.542969 88.070312 61.648438 87.582031 61.648438 87.066406 C 61.648438 86.550781 61.542969 86.0625 61.378906 85.980469 C 61.214844 85.871094 61.105469 86.304688 61.105469 87.066406 Z M 61.105469 87.066406 "/>
<path style=" stroke:none;fill-rule:nonzero;fill:rgb(0%,0%,0%);fill-opacity:1;" d="M 62.21875 87.09375 C 62.246094 87.882812 62.328125 88.125 62.382812 87.664062 C 62.515625 86.742188 62.652344 86.742188 63.605469 87.664062 L 64.363281 88.398438 L 64.335938 87.039062 C 64.308594 86.25 64.226562 86.007812 64.171875 86.441406 C 64.035156 87.390625 63.90625 87.390625 62.953125 86.46875 L 62.191406 85.734375 Z M 62.21875 87.09375 "/>
<path style=" stroke:none;fill-rule:nonzero;fill:rgb(0%,0%,0%);fill-opacity:1;" d="M 65.585938 86.847656 C 64.796875 88.398438 64.769531 88.453125 65.371094 87.9375 C 65.667969 87.691406 66.105469 87.472656 66.34375 87.472656 C 66.589844 87.472656 66.917969 87.691406 67.050781 87.9375 C 67.269531 88.316406 67.324219 88.34375 67.351562 88.015625 C 67.351562 87.636719 66.398438 85.84375 66.1875 85.84375 C 66.132812 85.84375 65.859375 86.304688 65.585938 86.847656 Z M 66.398438 86.929688 C 66.480469 87.066406 66.425781 87.203125 66.292969 87.203125 C 66.132812 87.203125 65.996094 87.066406 65.996094 86.929688 C 65.996094 86.769531 66.050781 86.660156 66.105469 86.660156 C 66.1875 86.660156 66.316406 86.769531 66.398438 86.929688 Z M 66.398438 86.929688 "/>
<path style=" stroke:none;fill-rule:nonzero;fill:rgb(0%,0%,0%);fill-opacity:1;" d="M 67.894531 86.875 C 67.894531 88.070312 68.332031 88.453125 68.492188 87.390625 C 68.574219 86.796875 68.574219 86.796875 69.226562 87.554688 C 69.714844 88.097656 69.960938 88.207031 70.121094 87.964844 C 70.421875 87.472656 70.394531 85.84375 70.066406 85.84375 C 69.933594 85.84375 69.796875 86.25 69.796875 86.714844 C 69.796875 87.203125 69.6875 87.472656 69.578125 87.339844 C 69.46875 87.175781 69.035156 86.769531 68.625 86.414062 L 67.894531 85.761719 Z M 67.894531 86.875 "/>
<path style=" stroke:none;fill-rule:nonzero;fill:rgb(0%,0%,0%);fill-opacity:1;" d="M 70.960938 86.441406 C 70.53125 87.445312 71.042969 88.289062 72.132812 88.289062 C 72.621094 88.289062 73.082031 88.207031 73.136719 88.070312 C 73.21875 87.964844 72.894531 87.882812 72.457031 87.882812 C 71.425781 87.882812 70.882812 87.175781 71.425781 86.523438 C 71.695312 86.199219 72.050781 86.117188 72.566406 86.226562 C 73.054688 86.304688 73.296875 86.277344 73.191406 86.117188 C 73.109375 85.953125 72.621094 85.84375 72.132812 85.84375 C 71.480469 85.84375 71.179688 86.007812 70.960938 86.441406 Z M 70.960938 86.441406 "/>
<path style=" stroke:none;fill-rule:nonzero;fill:rgb(0%,0%,0%);fill-opacity:1;" d="M 73.949219 86.277344 C 73.867188 86.496094 73.921875 87.066406 74.085938 87.554688 C 74.359375 88.425781 74.359375 88.398438 74.386719 87.121094 C 74.414062 85.816406 74.25 85.492188 73.949219 86.277344 Z M 73.949219 86.277344 "/>
<path style=" stroke:none;fill-rule:nonzero;fill:rgb(0%,0%,0%);fill-opacity:1;" d="M 75.5 86.957031 C 75.175781 87.582031 74.984375 88.125 75.066406 88.207031 C 75.148438 88.289062 75.285156 88.152344 75.390625 87.910156 C 75.605469 87.367188 76.421875 87.339844 76.855469 87.882812 C 77.046875 88.125 77.265625 88.261719 77.320312 88.179688 C 77.429688 88.070312 76.339844 85.84375 76.148438 85.84375 C 76.097656 85.84375 75.796875 86.332031 75.5 86.957031 Z M 76.3125 86.929688 C 76.3125 87.066406 76.175781 87.203125 76.015625 87.203125 C 75.878906 87.203125 75.824219 87.066406 75.90625 86.929688 C 75.988281 86.769531 76.121094 86.660156 76.203125 86.660156 C 76.257812 86.660156 76.3125 86.769531 76.3125 86.929688 Z M 76.3125 86.929688 "/>
<path style=" stroke:none;fill-rule:nonzero;fill:rgb(0%,0%,0%);fill-opacity:1;" d="M 77.941406 86.523438 C 77.699219 87.855469 77.890625 88.289062 78.703125 88.261719 C 79.328125 88.207031 79.355469 88.207031 78.839844 88.097656 C 78.351562 88.015625 78.242188 87.773438 78.160156 86.847656 C 78.078125 85.816406 78.050781 85.789062 77.941406 86.523438 Z M 77.941406 86.523438 "/>
<path style=" stroke:none;fill-rule:nonzero;fill:rgb(0%,0%,0%);fill-opacity:1;" d="M 81.066406 86.769531 C 80.957031 87.3125 80.929688 87.855469 81.039062 87.9375 C 81.121094 88.042969 81.203125 87.800781 81.203125 87.445312 L 81.203125 86.796875 L 81.828125 87.582031 L 82.453125 88.34375 L 82.832031 87.582031 C 83.15625 86.875 83.210938 86.847656 83.320312 87.339844 C 83.375 87.636719 83.539062 87.988281 83.671875 88.125 C 83.945312 88.425781 83.945312 87.773438 83.671875 86.523438 L 83.484375 85.707031 L 83.019531 86.578125 C 82.75 87.066406 82.480469 87.472656 82.425781 87.472656 C 82.34375 87.472656 82.046875 87.09375 81.773438 86.632812 L 81.230469 85.761719 Z M 81.066406 86.769531 "/>
<path style=" stroke:none;fill-rule:nonzero;fill:rgb(0%,0%,0%);fill-opacity:1;" d="M 85.03125 86.902344 C 84.460938 88.015625 84.246094 88.832031 84.761719 87.9375 C 85.113281 87.339844 85.980469 87.339844 86.335938 87.9375 C 86.472656 88.207031 86.664062 88.34375 86.769531 88.261719 C 86.90625 88.125 86.0625 86.304688 85.683594 85.898438 C 85.628906 85.84375 85.328125 86.277344 85.03125 86.902344 Z M 85.820312 86.929688 C 85.820312 87.066406 85.683594 87.203125 85.519531 87.203125 C 85.382812 87.203125 85.328125 87.066406 85.410156 86.929688 C 85.492188 86.769531 85.628906 86.660156 85.710938 86.660156 C 85.765625 86.660156 85.820312 86.769531 85.820312 86.929688 Z M 85.820312 86.929688 "/>
<path style=" stroke:none;fill-rule:nonzero;fill:rgb(0%,0%,0%);fill-opacity:1;" d="M 87.476562 87.121094 C 87.5 87.855469 87.554688 88.207031 87.636719 87.9375 C 87.800781 87.367188 88.15625 87.339844 88.371094 87.882812 C 88.453125 88.097656 88.644531 88.289062 88.808594 88.289062 C 89.023438 88.289062 89.023438 88.125 88.808594 87.746094 C 88.617188 87.367188 88.617188 87.203125 88.808594 87.203125 C 88.941406 87.203125 89.078125 86.902344 89.078125 86.523438 C 89.078125 85.953125 88.941406 85.84375 88.261719 85.84375 C 87.476562 85.84375 87.449219 85.871094 87.476562 87.121094 Z M 88.753906 86.441406 C 88.671875 86.632812 88.453125 86.796875 88.261719 86.796875 C 88.074219 86.796875 87.855469 86.632812 87.800781 86.441406 C 87.71875 86.25 87.910156 86.117188 88.261719 86.117188 C 88.617188 86.117188 88.808594 86.25 88.753906 86.441406 Z M 88.753906 86.441406 "/>
<path style=" stroke:none;fill-rule:nonzero;fill:rgb(0%,0%,0%);fill-opacity:1;" d="M 89.863281 85.980469 C 89.78125 86.605469 89.863281 88.070312 90 88.234375 C 90.082031 88.316406 90.164062 88.152344 90.164062 87.882812 C 90.164062 87.417969 90.191406 87.417969 90.707031 87.882812 C 91.007812 88.152344 91.332031 88.289062 91.441406 88.179688 C 91.578125 88.070312 91.441406 87.855469 91.171875 87.691406 C 90.871094 87.554688 90.488281 87.039062 90.273438 86.550781 C 90.082031 86.089844 89.890625 85.816406 89.863281 85.980469 Z M 89.863281 85.980469 "/>
<path style=" stroke:none;fill-rule:nonzero;fill:rgb(0%,0%,0%);fill-opacity:1;" d="M 90.707031 86.25 C 90.515625 86.496094 90.488281 86.660156 90.652344 86.660156 C 90.789062 86.660156 90.980469 86.46875 91.089844 86.25 C 91.171875 86.035156 91.199219 85.84375 91.144531 85.84375 C 91.089844 85.84375 90.898438 86.035156 90.707031 86.25 Z M 90.707031 86.25 "/>
<path style=" stroke:none;fill-rule:nonzero;fill:rgb(0%,0%,0%);fill-opacity:1;" d="M 92.0625 87.066406 C 92.0625 88.234375 92.089844 88.289062 92.824219 88.261719 C 93.53125 88.261719 93.558594 88.261719 92.933594 87.988281 C 92.199219 87.71875 92.363281 87.203125 93.179688 87.203125 C 93.480469 87.203125 93.640625 87.066406 93.558594 86.929688 C 93.453125 86.769531 93.234375 86.6875 93.070312 86.714844 C 92.445312 86.847656 92.582031 86.25 93.207031 86.0625 C 93.75 85.925781 93.695312 85.898438 92.960938 85.871094 C 92.089844 85.84375 92.0625 85.871094 92.0625 87.066406 Z M 92.0625 87.066406 "/>
<path style=" stroke:none;fill-rule:nonzero;fill:rgb(0%,0%,0%);fill-opacity:1;" d="M 94.183594 86.035156 C 94.371094 86.089844 94.507812 86.632812 94.507812 87.230469 C 94.507812 87.828125 94.617188 88.261719 94.753906 88.179688 C 94.890625 88.070312 94.972656 87.691406 94.917969 87.257812 C 94.863281 86.847656 94.972656 86.359375 95.105469 86.171875 C 95.324219 85.925781 95.214844 85.84375 94.617188 85.871094 C 94.183594 85.871094 93.996094 85.953125 94.183594 86.035156 Z M 94.183594 86.035156 "/>
<path style=" stroke:none;fill-rule:nonzero;fill:rgb(0%,0%,0%);fill-opacity:1;" d="M 41.089844 87.121094 C 42.992188 87.175781 46.085938 87.175781 48.015625 87.121094 C 49.917969 87.09375 48.339844 87.039062 44.539062 87.039062 C 40.734375 87.039062 39.160156 87.09375 41.089844 87.121094 Z M 41.089844 87.121094 "/>
</g>
</svg>
